EESchema Schematic File Version 4
EELAYER 30 0
EELAYER END
$Descr A4 11693 8268
encoding utf-8
Sheet 1 1
Title ""
Date ""
Rev ""
Comp ""
Comment1 ""
Comment2 ""
Comment3 ""
Comment4 ""
$EndDescr
$Comp
L Isolator:PC817 U5
U 1 1 5F3EACA7
P 7150 2550
F 0 "U5" H 7150 2875 50  0000 C CNN
F 1 "PC817" H 7150 2784 50  0000 C CNN
F 2 "Package_DIP:SMDIP-4_W7.62mm" H 6950 2350 50  0001 L CIN
F 3 "https://gr.mouser.com/datasheet/2/365/PC817X_NIP1B_ED-16P011B_SPEC-1360391.pdf" H 7150 2550 50  0001 L CNN
F 4 "Sharp Microelectronics " H 7150 2550 50  0001 C CNN "MFN"
F 5 "PC817X1NIP1B " H 7150 2550 50  0001 C CNN "MFP"
	1    7150 2550
	-1   0    0    -1  
$EndComp
$Comp
L Isolator:PC817 U3
U 1 1 5F3EBC60
P 7150 1100
F 0 "U3" H 7150 1425 50  0000 C CNN
F 1 "PC817" H 7150 1334 50  0000 C CNN
F 2 "Package_DIP:SMDIP-4_W7.62mm" H 6950 900 50  0001 L CIN
F 3 "https://gr.mouser.com/datasheet/2/365/PC817X_NIP1B_ED-16P011B_SPEC-1360391.pdf" H 7150 1100 50  0001 L CNN
F 4 "Sharp Microelectronics " H 7150 1100 50  0001 C CNN "MFN"
F 5 "PC817X1NIP1B " H 7150 1100 50  0001 C CNN "MFP"
	1    7150 1100
	1    0    0    -1  
$EndComp
$Comp
L Isolator:PC817 U4
U 1 1 5F3EC709
P 7150 1650
F 0 "U4" H 7150 1975 50  0000 C CNN
F 1 "PC817" H 7150 1884 50  0000 C CNN
F 2 "Package_DIP:SMDIP-4_W7.62mm" H 6950 1450 50  0001 L CIN
F 3 "https://gr.mouser.com/datasheet/2/365/PC817X_NIP1B_ED-16P011B_SPEC-1360391.pdf" H 7150 1650 50  0001 L CNN
F 4 "Sharp Microelectronics " H 7150 1650 50  0001 C CNN "MFN"
F 5 "PC817X1NIP1B " H 7150 1650 50  0001 C CNN "MFP"
	1    7150 1650
	1    0    0    -1  
$EndComp
$Comp
L Device:R R10
U 1 1 5F3ED643
P 7600 2450
F 0 "R10" V 7700 2450 50  0000 C CNN
F 1 "1K" V 7600 2450 50  0000 C CNN
F 2 "Resistor_SMD:R_0603_1608Metric" V 7530 2450 50  0001 C CNN
F 3 "~" H 7600 2450 50  0001 C CNN
	1    7600 2450
	0    1    1    0   
$EndComp
$Comp
L Device:Transformer_1P_1S T1
U 1 1 5F3F7851
P 7200 4300
F 0 "T1" H 7200 4681 50  0000 C CNN
F 1 "600" H 7200 4590 50  0000 C CNN
F 2 "Cat-n-Sound-Interface:SM-LP-5001" H 7200 4300 50  0001 C CNN
F 3 "https://gr.mouser.com/datasheet/2/54/SMLP5001-778036.pdf" H 7200 4300 50  0001 C CNN
F 4 "SM-LP-5001" H 7200 4300 50  0001 C CNN "MFP"
F 5 "Bourns" H 7200 4300 50  0001 C CNN "MFN"
	1    7200 4300
	1    0    0    -1  
$EndComp
$Comp
L Device:Transformer_1P_1S T2
U 1 1 5F3F9B01
P 7200 5200
F 0 "T2" H 7200 5581 50  0000 C CNN
F 1 "600" H 7200 5490 50  0000 C CNN
F 2 "Cat-n-Sound-Interface:SM-LP-5001" H 7200 5200 50  0001 C CNN
F 3 "https://gr.mouser.com/datasheet/2/54/SMLP5001-778036.pdf" H 7200 5200 50  0001 C CNN
F 4 "Bourns" H 7200 5200 50  0001 C CNN "MFN"
F 5 "SM-LP-5001" H 7200 5200 50  0001 C CNN "MFP"
	1    7200 5200
	1    0    0    -1  
$EndComp
$Comp
L Isolator:PC817 U6
U 1 1 5F4389A1
P 7150 3250
F 0 "U6" H 7150 3575 50  0000 C CNN
F 1 "PC817" H 7150 3484 50  0000 C CNN
F 2 "Package_DIP:SMDIP-4_W7.62mm" H 6950 3050 50  0001 L CIN
F 3 "https://gr.mouser.com/datasheet/2/365/PC817X_NIP1B_ED-16P011B_SPEC-1360391.pdf" H 7150 3250 50  0001 L CNN
F 4 "Sharp Microelectronics " H 7150 3250 50  0001 C CNN "MFN"
F 5 "PC817X1NIP1B " H 7150 3250 50  0001 C CNN "MFP"
	1    7150 3250
	1    0    0    -1  
$EndComp
$Comp
L Device:R R6
U 1 1 5F43FA92
P 6600 3150
F 0 "R6" V 6700 3150 50  0000 C CNN
F 1 "1K" V 6600 3150 50  0000 C CNN
F 2 "Resistor_SMD:R_0603_1608Metric" V 6530 3150 50  0001 C CNN
F 3 "~" H 6600 3150 50  0001 C CNN
	1    6600 3150
	0    1    1    0   
$EndComp
Wire Wire Line
	7450 1000 8200 1000
Wire Wire Line
	8200 1000 8200 1450
Wire Wire Line
	8200 1450 8800 1450
Wire Wire Line
	7450 1550 8800 1550
Wire Wire Line
	7750 2450 8250 2450
Wire Wire Line
	8250 2450 8250 1650
Wire Wire Line
	7450 3150 8300 3150
$Comp
L Connector:Screw_Terminal_01x07 J3
U 1 1 5F45B3AC
P 9000 1750
F 0 "J3" H 9150 1450 50  0000 L CNN
F 1 "Screw_Terminal_01x07" H 9000 2200 50  0000 L CNN
F 2 "TerminalBlock_TE-Connectivity:TerminalBlock_TE_282834-7_1x07_P2.54mm_Horizontal" H 9000 1750 50  0001 C CNN
F 3 "~" H 9000 1750 50  0001 C CNN
	1    9000 1750
	1    0    0    -1  
$EndComp
Wire Wire Line
	7600 4100 8350 4100
Wire Wire Line
	8350 4100 8350 1850
Wire Wire Line
	8350 1850 8800 1850
Wire Wire Line
	7600 5000 8400 5000
Wire Wire Line
	8400 5000 8400 1950
Wire Wire Line
	8400 1950 8800 1950
Wire Wire Line
	6800 4100 6600 4100
Text Label 8400 1450 0    50   ~ 0
PTTi
Text Label 8400 1550 0    50   ~ 0
CWi
Text Label 8400 1750 0    50   ~ 0
RXD
Text Label 8400 1650 0    50   ~ 0
TXD
Text Label 8400 1850 0    50   ~ 0
LIN
Text Label 8400 1950 0    50   ~ 0
LOUT
Text Label 6250 1350 0    50   ~ 0
PTT
Text Label 6250 1550 0    50   ~ 0
CW
$Comp
L Device:LED D3
U 1 1 5F46DA2F
P 10300 4000
F 0 "D3" V 10247 4080 50  0000 L CNN
F 1 "LED" V 10338 4080 50  0000 L CNN
F 2 "LED_SMD:LED_0603_1608Metric" H 10300 4000 50  0001 C CNN
F 3 "~" H 10300 4000 50  0001 C CNN
	1    10300 4000
	-1   0    0    1   
$EndComp
$Comp
L Device:R R3
U 1 1 5F4732F2
P 9850 4000
F 0 "R3" V 9750 4000 50  0000 C CNN
F 1 "1K" V 9850 4000 50  0000 C CNN
F 2 "Resistor_SMD:R_0603_1608Metric" V 9780 4000 50  0001 C CNN
F 3 "~" H 9850 4000 50  0001 C CNN
	1    9850 4000
	0    -1   -1   0   
$EndComp
Wire Wire Line
	10150 4000 10000 4000
$Comp
L Device:R R5
U 1 1 5F481E9F
P 9850 4300
F 0 "R5" V 9750 4300 50  0000 C CNN
F 1 "1K" V 9850 4300 50  0000 C CNN
F 2 "Resistor_SMD:R_0603_1608Metric" V 9780 4300 50  0001 C CNN
F 3 "~" H 9850 4300 50  0001 C CNN
	1    9850 4300
	0    -1   -1   0   
$EndComp
$Comp
L Device:LED D4
U 1 1 5F48224E
P 10300 4300
F 0 "D4" V 10247 4380 50  0000 L CNN
F 1 "LED" V 10338 4380 50  0000 L CNN
F 2 "LED_SMD:LED_0603_1608Metric" H 10300 4300 50  0001 C CNN
F 3 "~" H 10300 4300 50  0001 C CNN
	1    10300 4300
	-1   0    0    1   
$EndComp
Wire Wire Line
	10150 4300 10000 4300
$Comp
L Device:R R7
U 1 1 5F490621
P 6650 1000
F 0 "R7" V 6750 1000 50  0000 C CNN
F 1 "1K" V 6650 1000 50  0000 C CNN
F 2 "Resistor_SMD:R_0603_1608Metric" V 6580 1000 50  0001 C CNN
F 3 "~" H 6650 1000 50  0001 C CNN
	1    6650 1000
	0    1    1    0   
$EndComp
$Comp
L Device:R R8
U 1 1 5F490D86
P 6650 1550
F 0 "R8" V 6750 1550 50  0000 C CNN
F 1 "1K" V 6650 1550 50  0000 C CNN
F 2 "Resistor_SMD:R_0603_1608Metric" V 6580 1550 50  0001 C CNN
F 3 "~" H 6650 1550 50  0001 C CNN
	1    6650 1550
	0    1    1    0   
$EndComp
Wire Wire Line
	6800 1550 6850 1550
Wire Wire Line
	6800 1000 6850 1000
Wire Wire Line
	6500 1000 6500 1350
Text Label 5800 5000 0    50   ~ 0
MIC
Text Label 5500 4100 0    50   ~ 0
SPK
$Comp
L Device:R R9
U 1 1 5F496957
P 6600 3850
F 0 "R9" H 6700 3850 50  0000 C CNN
F 1 "8K2" V 6600 3850 50  0000 C CNN
F 2 "Resistor_SMD:R_0603_1608Metric" V 6530 3850 50  0001 C CNN
F 3 "~" H 6600 3850 50  0001 C CNN
	1    6600 3850
	1    0    0    -1  
$EndComp
Connection ~ 6600 4100
$Comp
L Device:LED D2
U 1 1 5F49ADA8
P 10300 3650
F 0 "D2" V 10247 3730 50  0000 L CNN
F 1 "LED" V 10338 3730 50  0000 L CNN
F 2 "LED_SMD:LED_0603_1608Metric" H 10300 3650 50  0001 C CNN
F 3 "~" H 10300 3650 50  0001 C CNN
	1    10300 3650
	-1   0    0    1   
$EndComp
$Comp
L Device:R R2
U 1 1 5F49B220
P 9850 3650
F 0 "R2" V 9750 3650 50  0000 C CNN
F 1 "1K" V 9850 3650 50  0000 C CNN
F 2 "Resistor_SMD:R_0603_1608Metric" V 9780 3650 50  0001 C CNN
F 3 "~" H 9850 3650 50  0001 C CNN
	1    9850 3650
	0    -1   -1   0   
$EndComp
$Comp
L Device:LED D1
U 1 1 5F49B7B2
P 10300 3300
F 0 "D1" V 10247 3380 50  0000 L CNN
F 1 "LED" V 10338 3380 50  0000 L CNN
F 2 "LED_SMD:LED_0603_1608Metric" H 10300 3300 50  0001 C CNN
F 3 "~" H 10300 3300 50  0001 C CNN
	1    10300 3300
	-1   0    0    1   
$EndComp
$Comp
L Device:R R1
U 1 1 5F49BA1D
P 9850 3300
F 0 "R1" V 9750 3300 50  0000 C CNN
F 1 "1K" V 9850 3300 50  0000 C CNN
F 2 "Resistor_SMD:R_0603_1608Metric" V 9780 3300 50  0001 C CNN
F 3 "~" H 9850 3300 50  0001 C CNN
	1    9850 3300
	0    -1   -1   0   
$EndComp
Wire Wire Line
	10150 3300 10000 3300
Wire Wire Line
	10150 3650 10000 3650
$Comp
L Device:R R4
U 1 1 5F3F759E
P 6400 2150
F 0 "R4" V 6500 2150 50  0000 C CNN
F 1 "4K7" V 6400 2150 50  0000 C CNN
F 2 "Resistor_SMD:R_0603_1608Metric" V 6330 2150 50  0001 C CNN
F 3 "~" H 6400 2150 50  0001 C CNN
	1    6400 2150
	0    1    1    0   
$EndComp
Wire Wire Line
	6550 2150 6550 2450
Wire Wire Line
	6750 3150 6850 3150
Wire Wire Line
	6450 3150 6050 3150
Wire Wire Line
	8800 1750 8300 1750
Wire Wire Line
	8300 1750 8300 3150
$Comp
L power:GND #PWR0103
U 1 1 5F4097CC
P 6850 1200
F 0 "#PWR0103" H 6850 950 50  0001 C CNN
F 1 "GND" H 6855 1027 50  0000 C CNN
F 2 "" H 6850 1200 50  0001 C CNN
F 3 "" H 6850 1200 50  0001 C CNN
	1    6850 1200
	1    0    0    -1  
$EndComp
$Comp
L power:GND #PWR0104
U 1 1 5F40A0EB
P 6850 1750
F 0 "#PWR0104" H 6850 1500 50  0001 C CNN
F 1 "GND" H 6855 1577 50  0000 C CNN
F 2 "" H 6850 1750 50  0001 C CNN
F 3 "" H 6850 1750 50  0001 C CNN
	1    6850 1750
	1    0    0    -1  
$EndComp
$Comp
L power:GND #PWR0105
U 1 1 5F40A658
P 6850 2650
F 0 "#PWR0105" H 6850 2400 50  0001 C CNN
F 1 "GND" H 6855 2477 50  0000 C CNN
F 2 "" H 6850 2650 50  0001 C CNN
F 3 "" H 6850 2650 50  0001 C CNN
	1    6850 2650
	1    0    0    -1  
$EndComp
$Comp
L power:GND #PWR0106
U 1 1 5F40ABC8
P 6850 3350
F 0 "#PWR0106" H 6850 3100 50  0001 C CNN
F 1 "GND" H 6855 3177 50  0000 C CNN
F 2 "" H 6850 3350 50  0001 C CNN
F 3 "" H 6850 3350 50  0001 C CNN
	1    6850 3350
	1    0    0    -1  
$EndComp
$Comp
L power:GND #PWR0107
U 1 1 5F40BE96
P 6600 4650
F 0 "#PWR0107" H 6600 4400 50  0001 C CNN
F 1 "GND" H 6605 4477 50  0000 C CNN
F 2 "" H 6600 4650 50  0001 C CNN
F 3 "" H 6600 4650 50  0001 C CNN
	1    6600 4650
	1    0    0    -1  
$EndComp
$Comp
L power:GND #PWR0108
U 1 1 5F40C418
P 6800 5400
F 0 "#PWR0108" H 6800 5150 50  0001 C CNN
F 1 "GND" H 6805 5227 50  0000 C CNN
F 2 "" H 6800 5400 50  0001 C CNN
F 3 "" H 6800 5400 50  0001 C CNN
	1    6800 5400
	1    0    0    -1  
$EndComp
$Comp
L power:GND1 #PWR0110
U 1 1 5F40D661
P 7450 1200
F 0 "#PWR0110" H 7450 950 50  0001 C CNN
F 1 "GND1" H 7455 1027 50  0000 C CNN
F 2 "" H 7450 1200 50  0001 C CNN
F 3 "" H 7450 1200 50  0001 C CNN
	1    7450 1200
	1    0    0    -1  
$EndComp
$Comp
L power:GND1 #PWR0111
U 1 1 5F40F186
P 7450 1750
F 0 "#PWR0111" H 7450 1500 50  0001 C CNN
F 1 "GND1" H 7455 1577 50  0000 C CNN
F 2 "" H 7450 1750 50  0001 C CNN
F 3 "" H 7450 1750 50  0001 C CNN
	1    7450 1750
	1    0    0    -1  
$EndComp
$Comp
L power:GND1 #PWR0116
U 1 1 5F40F5EC
P 7450 2650
F 0 "#PWR0116" H 7450 2400 50  0001 C CNN
F 1 "GND1" H 7455 2477 50  0000 C CNN
F 2 "" H 7450 2650 50  0001 C CNN
F 3 "" H 7450 2650 50  0001 C CNN
	1    7450 2650
	1    0    0    -1  
$EndComp
$Comp
L power:GND1 #PWR0117
U 1 1 5F40FB43
P 7450 3350
F 0 "#PWR0117" H 7450 3100 50  0001 C CNN
F 1 "GND1" H 7455 3177 50  0000 C CNN
F 2 "" H 7450 3350 50  0001 C CNN
F 3 "" H 7450 3350 50  0001 C CNN
	1    7450 3350
	1    0    0    -1  
$EndComp
$Comp
L power:GND1 #PWR0118
U 1 1 5F40FF8F
P 8800 2050
F 0 "#PWR0118" H 8800 1800 50  0001 C CNN
F 1 "GND1" H 8805 1877 50  0000 C CNN
F 2 "" H 8800 2050 50  0001 C CNN
F 3 "" H 8800 2050 50  0001 C CNN
	1    8800 2050
	0    1    1    0   
$EndComp
$Comp
L power:GND1 #PWR0119
U 1 1 5F4107E2
P 7600 5400
F 0 "#PWR0119" H 7600 5150 50  0001 C CNN
F 1 "GND1" H 7605 5227 50  0000 C CNN
F 2 "" H 7600 5400 50  0001 C CNN
F 3 "" H 7600 5400 50  0001 C CNN
	1    7600 5400
	1    0    0    -1  
$EndComp
$Comp
L power:GND1 #PWR0120
U 1 1 5F411897
P 7600 4500
F 0 "#PWR0120" H 7600 4250 50  0001 C CNN
F 1 "GND1" H 7605 4327 50  0000 C CNN
F 2 "" H 7600 4500 50  0001 C CNN
F 3 "" H 7600 4500 50  0001 C CNN
	1    7600 4500
	1    0    0    -1  
$EndComp
$Comp
L power:GND #PWR0112
U 1 1 5F412010
P 10450 3650
F 0 "#PWR0112" H 10450 3400 50  0001 C CNN
F 1 "GND" H 10455 3477 50  0000 C CNN
F 2 "" H 10450 3650 50  0001 C CNN
F 3 "" H 10450 3650 50  0001 C CNN
	1    10450 3650
	0    -1   -1   0   
$EndComp
$Comp
L power:GND #PWR0113
U 1 1 5F414B1B
P 10450 4000
F 0 "#PWR0113" H 10450 3750 50  0001 C CNN
F 1 "GND" H 10455 3827 50  0000 C CNN
F 2 "" H 10450 4000 50  0001 C CNN
F 3 "" H 10450 4000 50  0001 C CNN
	1    10450 4000
	0    -1   -1   0   
$EndComp
$Comp
L power:GND #PWR0114
U 1 1 5F414E4E
P 10450 4300
F 0 "#PWR0114" H 10450 4050 50  0001 C CNN
F 1 "GND" H 10455 4127 50  0000 C CNN
F 2 "" H 10450 4300 50  0001 C CNN
F 3 "" H 10450 4300 50  0001 C CNN
	1    10450 4300
	0    -1   -1   0   
$EndComp
$Comp
L power:GND1 #PWR0115
U 1 1 5F4151C8
P 10450 3300
F 0 "#PWR0115" H 10450 3050 50  0001 C CNN
F 1 "GND1" H 10455 3127 50  0000 C CNN
F 2 "" H 10450 3300 50  0001 C CNN
F 3 "" H 10450 3300 50  0001 C CNN
	1    10450 3300
	0    -1   -1   0   
$EndComp
Wire Wire Line
	6550 2450 6850 2450
Wire Wire Line
	9700 3300 9350 3300
Text Label 9350 3300 0    50   ~ 0
TXD
Wire Wire Line
	8250 1650 8800 1650
Wire Wire Line
	9700 3650 9350 3650
Text Label 9350 3650 0    50   ~ 0
RX
Wire Wire Line
	9700 4000 9350 4000
Wire Wire Line
	9700 4300 9350 4300
Text Label 9350 4000 0    50   ~ 0
PTT
Text Label 9350 4300 0    50   ~ 0
CW
Wire Wire Line
	5850 1350 6500 1350
Wire Wire Line
	5850 1550 6500 1550
$Comp
L power:PWR_FLAG #FLG0101
U 1 1 5F445960
P 8800 2050
F 0 "#FLG0101" H 8800 2125 50  0001 C CNN
F 1 "PWR_FLAG" V 8800 2177 50  0000 L CNN
F 2 "" H 8800 2050 50  0001 C CNN
F 3 "~" H 8800 2050 50  0001 C CNN
	1    8800 2050
	-1   0    0    1   
$EndComp
Connection ~ 8800 2050
$Comp
L Interface_USB:CP2102N-A01-GQFN28 U1
U 1 1 5F44D1D3
P 3250 4450
F 0 "U1" H 2750 3450 50  0000 C CNN
F 1 "CP2102N-A01-GQFN28" H 2350 3300 50  0000 C CNN
F 2 "Package_DFN_QFN:QFN-28-1EP_5x5mm_P0.5mm_EP3.35x3.35mm" H 3700 3250 50  0001 L CNN
F 3 "https://www.silabs.com/documents/public/data-sheets/cp2102n-datasheet.pdf" H 3300 3700 50  0001 C CNN
	1    3250 4450
	1    0    0    -1  
$EndComp
$Comp
L Connector:USB_B_Micro J1
U 1 1 5F44F609
P 1350 3950
F 0 "J1" H 1407 4417 50  0000 C CNN
F 1 "USB_B_Micro" H 1407 4326 50  0000 C CNN
F 2 "Connector_USB:USB_Micro-B_Molex-105017-0001" H 1500 3900 50  0001 C CNN
F 3 "~" H 1500 3900 50  0001 C CNN
	1    1350 3950
	1    0    0    -1  
$EndComp
Wire Wire Line
	5200 1450 5450 1450
$Comp
L Switch:SW_SPDT SW1
U 1 1 5F460D4A
P 5650 1450
F 0 "SW1" H 5650 1735 50  0000 C CNN
F 1 "SW_SPDT" H 5650 1644 50  0000 C CNN
F 2 "Button_Switch_SMD:SW_SPDT_PCM12" H 5650 1450 50  0001 C CNN
F 3 "~" H 5650 1450 50  0001 C CNN
	1    5650 1450
	1    0    0    -1  
$EndComp
$Comp
L Switch:SW_SP3T SW2
U 1 1 5F462F9C
P 6050 4100
F 0 "SW2" H 6050 4383 50  0000 C CNN
F 1 "SW_SP3T" H 6050 4292 50  0000 C CNN
F 2 "Button_Switch_SMD:SW_SP3T_PCM13" H 5425 4275 50  0001 C CNN
F 3 "~" H 5425 4275 50  0001 C CNN
	1    6050 4100
	1    0    0    -1  
$EndComp
$Comp
L Device:R R14
U 1 1 5F467432
P 6600 4350
F 0 "R14" V 6700 4350 50  0000 C CNN
F 1 "300" V 6600 4350 50  0000 C CNN
F 2 "Resistor_SMD:R_0603_1608Metric" V 6530 4350 50  0001 C CNN
F 3 "~" H 6600 4350 50  0001 C CNN
	1    6600 4350
	-1   0    0    1   
$EndComp
Wire Wire Line
	6600 4650 6600 4500
Wire Wire Line
	6600 4500 6800 4500
Connection ~ 6600 4500
Wire Wire Line
	6600 4200 6600 4100
Wire Wire Line
	6600 4100 6250 4100
Wire Wire Line
	6600 4100 6600 4000
Wire Wire Line
	6250 4000 6600 4000
Connection ~ 6600 4000
Wire Wire Line
	6250 4200 6600 4200
Connection ~ 6600 4200
$Comp
L power:GND #PWR06
U 1 1 5F477278
P 6500 3700
F 0 "#PWR06" H 6500 3450 50  0001 C CNN
F 1 "GND" V 6505 3572 50  0000 R CNN
F 2 "" H 6500 3700 50  0001 C CNN
F 3 "" H 6500 3700 50  0001 C CNN
	1    6500 3700
	0    1    1    0   
$EndComp
Wire Wire Line
	6500 3700 6600 3700
$Comp
L Connector:AudioJack3 J2
U 1 1 5F47E65D
P 9750 5200
F 0 "J2" H 9732 5525 50  0000 C CNN
F 1 "AudioJack3" H 9732 5434 50  0000 C CNN
F 2 "Connector_Audio:Jack_3.5mm_CUI_SJ-3523-SMT_Horizontal" H 9750 5200 50  0001 C CNN
F 3 "~" H 9750 5200 50  0001 C CNN
	1    9750 5200
	1    0    0    -1  
$EndComp
$Comp
L Connector:AudioJack3 J4
U 1 1 5F47FEFE
P 9750 5850
F 0 "J4" H 9732 6175 50  0000 C CNN
F 1 "AudioJack3" H 9732 6084 50  0000 C CNN
F 2 "Connector_Audio:Jack_3.5mm_CUI_SJ-3523-SMT_Horizontal" H 9750 5850 50  0001 C CNN
F 3 "~" H 9750 5850 50  0001 C CNN
	1    9750 5850
	1    0    0    -1  
$EndComp
NoConn ~ 9950 5200
NoConn ~ 9950 5850
$Comp
L power:GND #PWR07
U 1 1 5F484F70
P 10450 5100
F 0 "#PWR07" H 10450 4850 50  0001 C CNN
F 1 "GND" H 10455 4927 50  0000 C CNN
F 2 "" H 10450 5100 50  0001 C CNN
F 3 "" H 10450 5100 50  0001 C CNN
	1    10450 5100
	1    0    0    -1  
$EndComp
$Comp
L power:GND #PWR08
U 1 1 5F486659
P 10450 5750
F 0 "#PWR08" H 10450 5500 50  0001 C CNN
F 1 "GND" H 10455 5577 50  0000 C CNN
F 2 "" H 10450 5750 50  0001 C CNN
F 3 "" H 10450 5750 50  0001 C CNN
	1    10450 5750
	1    0    0    -1  
$EndComp
Wire Wire Line
	9950 5300 10300 5300
Wire Wire Line
	9950 5950 10300 5950
Text Label 10300 5300 2    50   ~ 0
SPK
Text Label 10300 5950 2    50   ~ 0
MIC
Wire Wire Line
	5500 4100 5850 4100
Wire Wire Line
	5800 5000 6800 5000
Wire Wire Line
	9950 5750 10450 5750
Wire Wire Line
	9950 5100 10450 5100
Wire Wire Line
	3750 3650 4000 3650
Text Label 4000 3650 2    50   ~ 0
TX
Text Label 6050 3150 0    50   ~ 0
TX
Text Label 4000 3850 2    50   ~ 0
DTR
Wire Wire Line
	3750 3850 4000 3850
Text Label 5200 1450 0    50   ~ 0
DTR
Wire Wire Line
	3750 3550 4000 3550
Text Label 4000 3550 2    50   ~ 0
RX
Text Label 6050 2450 0    50   ~ 0
RX
Wire Wire Line
	6050 2450 6550 2450
Connection ~ 6550 2450
Wire Wire Line
	6250 2150 6050 2150
Text Label 6050 2150 0    50   ~ 0
VDD
Wire Wire Line
	3250 3150 3250 2600
Wire Wire Line
	3250 2600 3500 2600
Text Label 4500 2600 2    50   ~ 0
VDD
$Comp
L power:GND #PWR04
U 1 1 5F4B3617
P 3250 5750
F 0 "#PWR04" H 3250 5500 50  0001 C CNN
F 1 "GND" H 3255 5577 50  0000 C CNN
F 2 "" H 3250 5750 50  0001 C CNN
F 3 "" H 3250 5750 50  0001 C CNN
	1    3250 5750
	1    0    0    -1  
$EndComp
Text Label 2150 3750 0    50   ~ 0
VBUS
Wire Wire Line
	3150 3150 3150 2600
Wire Wire Line
	3150 2600 2800 2600
Text Label 1750 2600 0    50   ~ 0
VBUS
$Comp
L Device:R R13
U 1 1 5F4D210D
P 2500 3550
F 0 "R13" V 2400 3550 50  0000 C CNN
F 1 "1K" V 2500 3550 50  0000 C CNN
F 2 "Resistor_SMD:R_0603_1608Metric" V 2430 3550 50  0001 C CNN
F 3 "~" H 2500 3550 50  0001 C CNN
	1    2500 3550
	0    1    1    0   
$EndComp
Wire Wire Line
	2350 3550 2150 3550
Wire Wire Line
	2650 3550 2750 3550
Text Label 2150 3550 0    50   ~ 0
VDD
$Comp
L Device:C C1
U 1 1 5F4DD705
P 2350 2750
F 0 "C1" H 2465 2796 50  0000 L CNN
F 1 "0.1u" H 2465 2705 50  0000 L CNN
F 2 "Capacitor_SMD:C_0603_1608Metric" H 2388 2600 50  0001 C CNN
F 3 "~" H 2350 2750 50  0001 C CNN
	1    2350 2750
	1    0    0    -1  
$EndComp
Wire Wire Line
	2350 2600 1750 2600
$Comp
L Device:C C2
U 1 1 5F4DDD5E
P 2800 2750
F 0 "C2" H 2915 2796 50  0000 L CNN
F 1 "4.7u" H 2915 2705 50  0000 L CNN
F 2 "Capacitor_SMD:C_0603_1608Metric" H 2838 2600 50  0001 C CNN
F 3 "~" H 2800 2750 50  0001 C CNN
	1    2800 2750
	1    0    0    -1  
$EndComp
Connection ~ 2800 2600
Wire Wire Line
	2800 2600 2350 2600
$Comp
L power:GND #PWR03
U 1 1 5F4DE877
P 2350 3000
F 0 "#PWR03" H 2350 2750 50  0001 C CNN
F 1 "GND" H 2355 2827 50  0000 C CNN
F 2 "" H 2350 3000 50  0001 C CNN
F 3 "" H 2350 3000 50  0001 C CNN
	1    2350 3000
	1    0    0    -1  
$EndComp
Wire Wire Line
	2350 2950 2800 2950
Wire Wire Line
	2800 2950 2800 2900
Wire Wire Line
	2350 2900 2350 2950
Connection ~ 2350 2600
Connection ~ 2350 2950
Wire Wire Line
	2350 2950 2350 3000
$Comp
L Device:C C3
U 1 1 5F4F8254
P 3500 2750
F 0 "C3" H 3615 2796 50  0000 L CNN
F 1 "0.1u" H 3615 2705 50  0000 L CNN
F 2 "Capacitor_SMD:C_0603_1608Metric" H 3538 2600 50  0001 C CNN
F 3 "~" H 3500 2750 50  0001 C CNN
	1    3500 2750
	1    0    0    -1  
$EndComp
$Comp
L Device:C C4
U 1 1 5F4F825E
P 3950 2750
F 0 "C4" H 4065 2796 50  0000 L CNN
F 1 "4.7u" H 4065 2705 50  0000 L CNN
F 2 "Capacitor_SMD:C_0603_1608Metric" H 3988 2600 50  0001 C CNN
F 3 "~" H 3950 2750 50  0001 C CNN
	1    3950 2750
	1    0    0    -1  
$EndComp
$Comp
L power:GND #PWR05
U 1 1 5F4F8268
P 3500 3000
F 0 "#PWR05" H 3500 2750 50  0001 C CNN
F 1 "GND" H 3505 2827 50  0000 C CNN
F 2 "" H 3500 3000 50  0001 C CNN
F 3 "" H 3500 3000 50  0001 C CNN
	1    3500 3000
	1    0    0    -1  
$EndComp
Wire Wire Line
	3500 2950 3950 2950
Wire Wire Line
	3950 2950 3950 2900
Wire Wire Line
	3500 2900 3500 2950
Connection ~ 3500 2950
Wire Wire Line
	3500 2950 3500 3000
Connection ~ 3500 2600
Wire Wire Line
	3500 2600 3950 2600
Connection ~ 3950 2600
Wire Wire Line
	3950 2600 4500 2600
$Comp
L Power_Protection:SP0503BAHT D5
U 1 1 5F4FD6EA
P 2050 4850
F 0 "D5" H 1750 4900 50  0000 L CNN
F 1 "SP0503BAHT" H 1400 4800 50  0000 L CNN
F 2 "Package_TO_SOT_SMD:SOT-143" H 2275 4800 50  0001 L CNN
F 3 "http://www.littelfuse.com/~/media/files/littelfuse/technical%20resources/documents/data%20sheets/sp05xxba.pdf" H 2175 4975 50  0001 C CNN
	1    2050 4850
	1    0    0    -1  
$EndComp
$Comp
L power:GND #PWR01
U 1 1 5F4FE6E9
P 1350 4450
F 0 "#PWR01" H 1350 4200 50  0001 C CNN
F 1 "GND" H 1355 4277 50  0000 C CNN
F 2 "" H 1350 4450 50  0001 C CNN
F 3 "" H 1350 4450 50  0001 C CNN
	1    1350 4450
	1    0    0    -1  
$EndComp
Wire Wire Line
	1250 4350 1250 4400
Wire Wire Line
	1250 4400 1350 4400
Wire Wire Line
	1350 4450 1350 4400
Wire Wire Line
	1350 4350 1350 4400
Connection ~ 1350 4400
$Comp
L power:GND #PWR02
U 1 1 5F506771
P 2050 5050
F 0 "#PWR02" H 2050 4800 50  0001 C CNN
F 1 "GND" H 2055 4877 50  0000 C CNN
F 2 "" H 2050 5050 50  0001 C CNN
F 3 "" H 2050 5050 50  0001 C CNN
	1    2050 5050
	1    0    0    -1  
$EndComp
Wire Wire Line
	1650 3950 1950 3950
Wire Wire Line
	1950 3950 1950 3850
Wire Wire Line
	1950 3850 2750 3850
Wire Wire Line
	1650 4050 2050 4050
Wire Wire Line
	2050 4050 2050 3950
Wire Wire Line
	2050 3950 2750 3950
Wire Wire Line
	1950 3950 1950 4650
Connection ~ 1950 3950
Wire Wire Line
	2050 4050 2050 4650
Connection ~ 2050 4050
Wire Wire Line
	2150 4650 2150 3750
Wire Wire Line
	2150 3750 2400 3750
NoConn ~ 1650 4150
$Comp
L Device:R R11
U 1 1 5F51C779
P 1900 3750
F 0 "R11" V 1800 3750 50  0000 C CNN
F 1 "22K1" V 1900 3750 50  0000 C CNN
F 2 "Resistor_SMD:R_0603_1608Metric" V 1830 3750 50  0001 C CNN
F 3 "~" H 1900 3750 50  0001 C CNN
	1    1900 3750
	0    1    1    0   
$EndComp
Wire Wire Line
	1650 3750 1750 3750
Wire Wire Line
	2050 3750 2150 3750
Connection ~ 2150 3750
$Comp
L Device:R R12
U 1 1 5F523F26
P 2400 4850
F 0 "R12" V 2500 4800 50  0000 L CNN
F 1 "47k5" V 2400 4750 50  0000 L CNN
F 2 "Resistor_SMD:R_0603_1608Metric" V 2330 4850 50  0001 C CNN
F 3 "~" H 2400 4850 50  0001 C CNN
	1    2400 4850
	1    0    0    -1  
$EndComp
Wire Wire Line
	2050 5050 2400 5050
Connection ~ 2050 5050
Wire Wire Line
	2400 5050 2400 5000
Wire Wire Line
	2400 4700 2400 3750
Connection ~ 2400 3750
Wire Wire Line
	2400 3750 2750 3750
$Comp
L Connector:TestPoint TP7
U 1 1 5F54CFF5
P 4550 3350
F 0 "TP7" V 4504 3538 50  0000 L CNN
F 1 "TestPoint" V 4595 3538 50  0000 L CNN
F 2 "TestPoint:TestPoint_Pad_D1.0mm" H 4750 3350 50  0001 C CNN
F 3 "~" H 4750 3350 50  0001 C CNN
	1    4550 3350
	0    1    1    0   
$EndComp
$Comp
L Connector:TestPoint TP2
U 1 1 5F54E179
P 4200 3450
F 0 "TP2" V 4154 3638 50  0000 L CNN
F 1 "TestPoint" V 4245 3638 50  0000 L CNN
F 2 "TestPoint:TestPoint_Pad_D1.0mm" H 4400 3450 50  0001 C CNN
F 3 "~" H 4400 3450 50  0001 C CNN
	1    4200 3450
	0    1    1    0   
$EndComp
$Comp
L Connector:TestPoint TP3
U 1 1 5F54E689
P 4200 3750
F 0 "TP3" V 4154 3938 50  0000 L CNN
F 1 "TestPoint" V 4245 3938 50  0000 L CNN
F 2 "TestPoint:TestPoint_Pad_D1.0mm" H 4400 3750 50  0001 C CNN
F 3 "~" H 4400 3750 50  0001 C CNN
	1    4200 3750
	0    1    1    0   
$EndComp
$Comp
L Connector:TestPoint TP8
U 1 1 5F54EE11
P 4550 3950
F 0 "TP8" V 4504 4138 50  0000 L CNN
F 1 "TestPoint" V 4595 4138 50  0000 L CNN
F 2 "TestPoint:TestPoint_Pad_D1.0mm" H 4750 3950 50  0001 C CNN
F 3 "~" H 4750 3950 50  0001 C CNN
	1    4550 3950
	0    1    1    0   
$EndComp
$Comp
L Connector:TestPoint TP4
U 1 1 5F54F983
P 4200 4350
F 0 "TP4" V 4154 4538 50  0000 L CNN
F 1 "TestPoint" V 4245 4538 50  0000 L CNN
F 2 "TestPoint:TestPoint_Pad_D1.0mm" H 4400 4350 50  0001 C CNN
F 3 "~" H 4400 4350 50  0001 C CNN
	1    4200 4350
	0    1    1    0   
$EndComp
$Comp
L Connector:TestPoint TP5
U 1 1 5F5503D1
P 4200 4950
F 0 "TP5" V 4154 5138 50  0000 L CNN
F 1 "TestPoint" V 4245 5138 50  0000 L CNN
F 2 "TestPoint:TestPoint_Pad_D1.0mm" H 4400 4950 50  0001 C CNN
F 3 "~" H 4400 4950 50  0001 C CNN
	1    4200 4950
	0    1    1    0   
$EndComp
$Comp
L Connector:TestPoint TP1
U 1 1 5F550AB0
P 3900 5050
F 0 "TP1" V 3854 5238 50  0000 L CNN
F 1 "TestPoint" V 3945 5238 50  0000 L CNN
F 2 "TestPoint:TestPoint_Pad_D1.0mm" H 4100 5050 50  0001 C CNN
F 3 "~" H 4100 5050 50  0001 C CNN
	1    3900 5050
	0    1    1    0   
$EndComp
$Comp
L Connector:TestPoint TP6
U 1 1 5F551293
P 4200 5350
F 0 "TP6" V 4154 5538 50  0000 L CNN
F 1 "TestPoint" V 4245 5538 50  0000 L CNN
F 2 "TestPoint:TestPoint_Pad_D1.0mm" H 4400 5350 50  0001 C CNN
F 3 "~" H 4400 5350 50  0001 C CNN
	1    4200 5350
	0    1    1    0   
$EndComp
Wire Wire Line
	3750 3350 4550 3350
Wire Wire Line
	3750 3450 4200 3450
Wire Wire Line
	3750 3750 4200 3750
Wire Wire Line
	4550 3950 3750 3950
Wire Wire Line
	4200 4350 3750 4350
Wire Wire Line
	4200 4950 3750 4950
Wire Wire Line
	3900 5050 3750 5050
Wire Wire Line
	3750 5350 4200 5350
NoConn ~ 3750 4050
NoConn ~ 3750 4250
NoConn ~ 3750 4550
NoConn ~ 3750 4650
NoConn ~ 3750 4750
NoConn ~ 3750 5150
NoConn ~ 3750 5250
NoConn ~ 3750 5450
NoConn ~ 3750 5550
$Comp
L power:PWR_FLAG #FLG0102
U 1 1 5F59D38E
P 3150 2600
F 0 "#FLG0102" H 3150 2675 50  0001 C CNN
F 1 "PWR_FLAG" H 3150 2773 50  0000 C CNN
F 2 "" H 3150 2600 50  0001 C CNN
F 3 "~" H 3150 2600 50  0001 C CNN
	1    3150 2600
	1    0    0    -1  
$EndComp
Connection ~ 3150 2600
$EndSCHEMATC
